{
    "nome": "Inno_alla_gioia",
    "durata": 44,
    "mp3": "",
    "note": {
        "do": [2, 5, 17, 20, 36, 41, 49, 52, 68, 73, 81, 84],
        "re": [3, 4, 18, 19, 46, 50, 51, 78, 82, 83],
        "mi": [],
        "fa": [],
        "sol": [8, 9, 23, 24, 28, 29, 33, 38, 44, 55, 56, 60, 61, 65, 70, 76, 87, 88, 92, 93],
        "la": [7, 10, 13, 14, 22, 25, 27, 30, 31, 34, 39, 43, 45, 54, 57, 59, 62, 63, 66, 71, 75, 77, 86, 89, 91],
        "si": [0, 1, 6, 11, 12, 15, 16, 21, 26, 32, 35, 37, 40, 42, 47, 48, 53, 58, 64, 67, 69, 72, 74, 79, 80, 85, 90]
    },
    "position": [
        0.00, 0.40, 0.96, 1.39,
        1.88, 2.34, 2.80, 3.24,
        3.68, 4.00, 4.60, 5.00,
        5.60, 6.21, 6.46,

        7.40, 7.87, 8.33, 8.81,
        9.25, 9.65, 10.11, 10.63,
        11.10, 11.56, 12.03, 12.50,
        12.99, 13.69, 14.00,

        14.98, 15.45, 15.91, 16.37,
        16.88, 17.34, 17.47, 17.81, 18.27,
        18.73, 19.18, 19.31, 19.69, 20.15,
        20.59, 21.06, 21.61,

        22.12, 22.62, 23.45, 23.90,
        24.31, 24.74, 25.23, 25.68,
        26.13, 26.61, 27.16, 27.73,
        28.05, 28.59, 29.02,

        29.50, 29.97, 30.43, 30.89,
        31.40, 31.86, 31.99, 32.33, 32.79,
        33.25, 33.70, 33.83, 34.21, 34.67,
        35.11, 35.58, 36.13,

        36.64, 37.14, 37.97, 38.42,
        38.83, 39.26, 39.75, 40.20,
        40.65, 41.13, 41.68, 42.25,
        42.57, 43.11, 43.54
    ],
    "Note": [
        "si", "si", "do", "re",
        "re", "do", "si", "la",
        "sol", "sol", "la", "si",
        "si", "la", "la",

        "si", "si", "do", "re",
        "re", "do", "si", "la",
        "sol", "sol", "la", "si",
        "la", "sol", "sol",
        "------------------------",
        "la", "la", "si", "sol",
        "la", "si", "do", "si", "sol",
        "la", "si", "do", "si", "la",
        "sol", "la", "re",

        "si", "si", "do", "re",
        "re", "do", "si", "la",
        "sol", "sol", "la", "si",
        "la", "sol", "sol",
        "------------------------",
        "la", "la", "si", "sol",
        "la", "si", "do", "si", "sol",
        "la", "si", "do", "si", "la",
        "sol", "la", "re",

        "si", "si", "do", "re",
        "re", "do", "si", "la",
        "sol", "sol", "la", "si",
        "la", "sol", "sol"
    ]
}