{
    "nome": "Mii Theme",
    "durata": 15,
    "mp3": "",
    "note": {
        "do": [2, 10, 17, 19, 21],
        "re": [5, 6, 7, 14, 15],
        "mi": [13, 24, 25, 26, 27, 28, 29, 30],
        "fa": [0, 4, 8, 12, 18, 23],
        "sol": [16, 20, 22],
        "la": [1, 3, 9, 11],
        "si": []
    },
    "position": [0.4, 1, 1.2, 1.7, 2.2, 2.5, 2.7, 3, 4.5, 4.8, 5.20, 5.4, 6, 6.5, 6.75, 7.75, 8, 8.8, 9.4, 9.5, 10.1, 10.6, 11.2, 11.7, 12.5, 13, 13.25, 13.5, 14.5, 14.75, 15]
}