{
	"textures": [
		{
			"image": "tasti.png",
			"format": "RGBA8888",
			"size": {
				"w": 132,
				"h": 100
			},
			"scale": 1,
			"frames": [
				{
					"filename": "frame1.png",
					"rotated": false,
					"trimmed": false,
					"sourceSize": {
						"w": 66,
						"h": 100
					},
					"spriteSourceSize": {
						"x": 0,
						"y": 0,
						"w": 66,
						"h": 100
					},
					"frame": {
						"x": 0,
						"y": 0,
						"w": 66,
						"h": 100
					}
				},
				{
					"filename": "frame2.png",
					"rotated": false,
					"trimmed": false,
					"sourceSize": {
						"w": 66,
						"h": 100
					},
					"spriteSourceSize": {
						"x": 0,
						"y": 0,
						"w": 66,
						"h": 100
					},
					"frame": {
						"x": 66,
						"y": 0,
						"w": 66,
						"h": 100
					}
				}
			]
		}
	],
	"meta": {
		"app": "https://www.codeandweb.com/texturepacker",
		"version": "3.0",
		"smartupdate": "$TexturePacker:SmartUpdate:35497f4c0dc83046ce0a79eb153197da:69f9ccbdd326b6b9e563a6217a52c75a:f3e6b071adb91c0c41e7ea1bb3e1e986$"
	}
}
